{
    "settings":
        {
            "format": "png",
            "quality": 1000,
            "crop": 0,
            "render_resolution":
                {
                    "width": 1200,
                    "height": 162
                },
            "display_resolution":
                {
                    "width": 1200,
                    "height": 162
                }
        },
    "objects":
        [
            {
                "type": "image",
                "url": "http://christiansibo.com/arcsec/sig_generator/presentation_layer/images/sig_background.png",
                "position":
                    {
                        "x": 0,
                        "y": 0
                    },
                "size":
                    {
                        "width": 1200,
                        "height": 162
                    },
                "angle": 0
            }
        ]
}
